<svg>
<svg id='close' width="20" height="20" viewBox="0 0 20 20" fill="none" xmlns="http://www.w3.org/2000/svg">
<path d="M5 5L15 15M5 15L15 5" stroke="#16171B" stroke-linecap="round"/>
</svg>


</svg>